Earthquakes data analysis demo | Anqi Ma
…
    #read data
    data <- read_csv("https://jjvenky.github.io/GG606AW23/database.csv", 
                     col_types = cols(Date = col_date(format = "%m/%d/%Y"),
                                      Time = col_time(format = "%H:%M:%S")))
    #problems(data)
    #data[problems(data)$row,]
    #as.POSIXct(problems(data)$actual, "%Y-%m-%dT%H:%M:%S", tz="UTC")

    #check data and omit N/A
    if(any(is.na(data$Date))){
      data <- filter(data, !is.na(data$Date))
    }
    data

## # A tibble: 23,409 × 21
##    Date       Time     Latitude Longitude Type     Depth Depth…¹ Depth…² Magni…³
##    <date>     <time>      <dbl>     <dbl> <chr>    <dbl>   <dbl>   <dbl>   <dbl>
##  1 1965-01-02 13:44:18    19.2      146.  Earthqu…  132.      NA      NA     6  
##  2 1965-01-04 11:29:49     1.86     127.  Earthqu…   80       NA      NA     5.8
##  3 1965-01-05 18:05:58   -20.6     -174.  Earthqu…   20       NA      NA     6.2
##  4 1965-01-08 18:49:43   -59.1      -23.6 Earthqu…   15       NA      NA     5.8
##  5 1965-01-09 13:32:50    11.9      126.  Earthqu…   15       NA      NA     5.8
##  6 1965-01-10 13:36:32   -13.4      167.  Earthqu…   35       NA      NA     6.7
##  7 1965-01-12 13:32:25    27.4       87.9 Earthqu…   20       NA      NA     5.9
##  8 1965-01-15 23:17:42   -13.3      166.  Earthqu…   35       NA      NA     6  
##  9 1965-01-16 11:32:37   -56.5      -27.0 Earthqu…   95       NA      NA     6  
## 10 1965-01-17 10:43:17   -24.6      178.  Earthqu…  565       NA      NA     5.8
## # … with 23,399 more rows, 12 more variables: `Magnitude Type` <chr>,
## #   `Magnitude Error` <dbl>, `Magnitude Seismic Stations` <dbl>,
## #   `Azimuthal Gap` <dbl>, `Horizontal Distance` <dbl>,
## #   `Horizontal Error` <dbl>, `Root Mean Square` <dbl>, ID <chr>, Source <chr>,
## #   `Location Source` <chr>, `Magnitude Source` <chr>, Status <chr>, and
## #   abbreviated variable names ¹​`Depth Error`, ²​`Depth Seismic Stations`,
## #   ³​Magnitude
…
